{
  "project_info": {
    "project_number": "221345254660",
    "firebase_url": "https://keystone-voip.firebaseio.com",
    "project_id": "keystone-voip",
    "storage_bucket": "keystone-voip.appspot.com"
  },
  "client": [
    {
      "client_info": {
        "mobilesdk_app_id": "1:221345254660:android:13708d0bf63d200f",
        "android_client_info": {
          "package_name": "com.keystone.voip"
        }
      },
      "oauth_client": [
        {
          "client_id": "221345254660-saorhs8d181v8dm674av7r3ja3tv3nn4.apps.googleusercontent.com",
          "client_type": 3
        },
        {
          "client_id": "221345254660-saorhs8d181v8dm674av7r3ja3tv3nn4.apps.googleusercontent.com",
          "client_type": 3
        }
      ],
      "api_key": [
        {
          "current_key": "AIzaSyCeMqdiXMkX77wZXpBUQ6s0LTHbGWZ-M78"
        }
      ],
      "services": {
        "analytics_service": {
          "status": 1
        },
        "appinvite_service": {
          "status": 1,
          "other_platform_oauth_client": []
        },
        "ads_service": {
          "status": 2
        }
      }
    }
  ],
  "configuration_version": "1"
}